<svg width="127" height="169" viewBox="0 0 127 169" fill="none" xmlns="http://www.w3.org/2000/svg">
<path d="M104.974 159.824L104.304 161.989L126.224 168.445L123.866 6.22109L103.07 0.0955403L18.4824 120.841C13.23 128.5 6.91757 131.062 1.65143 129.45L0.998727 131.56L37.0264 142.172L118.804 20.5983L118.856 20.4318L119.498 135.878C119.572 156.25 114.4 162.661 104.974 159.824Z" fill="#FFFBF6"/>
</svg>
