<svg width="241" height="40" viewBox="0 0 241 40" fill="none" xmlns="http://www.w3.org/2000/svg">
<path d="M56.2828 12.1943C54.8623 12.1943 52.653 13.4515 51.2328 14.4731V14.7874C52.8109 14.2373 53.6789 14.3159 52.9687 16.2017L46.6561 35.0599C45.946 37.1028 46.5772 37.8101 47.8398 37.8101C49.2601 37.8101 51.4693 36.6315 52.8898 35.61V35.2956C51.1539 35.8457 50.3648 35.7671 51.0749 33.8813L57.3873 15.0232C58.0187 12.9802 57.4663 12.1943 56.2828 12.1943Z" fill="#231F20"/>
<path d="M58.8053 3.23438C57.3061 3.23438 55.8857 4.41301 55.728 5.98453C55.5702 7.3989 56.5171 8.6561 58.0952 8.6561C59.5154 8.6561 61.0146 7.47746 61.1725 5.90595C61.3303 4.49158 60.3045 3.23438 58.8053 3.23438Z" fill="#231F20"/>
<path d="M83.4258 34.9812V3.39355H83.1891C82.1632 3.70785 81.532 3.78643 80.4273 3.78643H77.5868V4.10073C79.086 4.17931 79.2438 4.41504 79.2438 5.98656V12.8227C78.218 12.5084 76.3242 12.1155 74.4306 12.1155C67.3289 12.1155 61.332 17.2228 61.332 26.2592C61.332 32.9382 65.593 37.8098 70.5641 37.8098C74.036 37.8098 77.5868 35.2168 79.2438 33.881V37.2597H85.0829V36.9456C83.5837 36.7884 83.4258 36.5527 83.4258 34.9812ZM79.2438 33.2524C77.9023 34.274 75.9298 35.4525 73.4837 35.4525C68.7492 35.4525 65.5141 30.6595 65.5141 24.452C65.5141 17.5372 68.4337 12.8227 73.4048 12.8227C75.693 12.8227 77.8236 14.0013 79.2438 15.0229V33.2524Z" fill="#231F20"/>
<path d="M98.3415 22.4107C105.206 22.4107 109.862 20.9962 110.414 16.9102C110.809 13.7673 108.047 12.1172 104.891 12.1172C96.5266 12.1172 89.9775 21.4677 89.0306 29.011C88.3994 34.1971 90.7665 37.733 95.1064 37.733C99.3674 37.733 102.918 34.4329 106.39 31.3683L106.627 30.6612C104.102 32.7042 101.498 34.59 98.4994 34.59C94.7907 34.59 93.0547 31.7612 93.6072 27.1251C93.7651 25.7108 94.2384 23.9822 94.8696 22.2536H98.3415V22.4107ZM103.786 12.7458C105.838 12.7458 106.942 14.3174 106.469 16.5961C105.995 19.3461 103.865 21.8606 98.6572 21.8606H95.0275C97.0002 16.6747 99.9986 12.7458 103.786 12.7458Z" fill="#231F20"/>
<path d="M48.8655 2.68794H44.8413V3.00225C47.1295 3.00225 47.1295 3.94516 45.4725 8.89545L36.0037 35.2969L28.9023 14.553L31.1116 8.97403C31.5062 8.03113 31.7428 7.24537 32.0585 6.53817L33.4787 2.60938H29.6124V3.00225C31.8217 3.00225 31.8217 3.94516 30.007 8.89545L28.4287 13.0601L27.0085 8.89545C26.9295 8.65974 26.8506 8.50257 26.7717 8.26686L24.5624 2.68794H17.9343V3.00225C19.5124 3.00225 20.2225 3.63087 21.8795 8.10969L25.0357 17.3816L18.4076 35.3755L9.41246 8.97403C9.33355 8.7383 9.25465 8.50257 9.17574 8.34542L7.12419 2.68794H0.496094V3.00225C2.07421 3.00225 2.78436 3.63087 4.44138 8.10969L14.6992 37.3399H18.8812L25.6671 18.9533L32.1374 37.3399H36.2405L46.4983 8.97403C46.5773 8.81688 46.5773 8.7383 46.656 8.58115L48.8655 2.68794Z" fill="#231F20"/>
<path d="M217.5 22C216.692 22 216 22.6924 216 23.4998C216 24.3076 216.692 25 217.5 25C218.308 25 219 24.3076 219 23.3845C219 22.6924 218.308 22 217.5 22Z" fill="#231F20"/>
<path d="M162.034 27.0958C161.292 26.3653 160.303 26 158.944 26C155.977 26 154 28.0698 154 31.2349C154 34.2784 155.854 36.3478 158.82 36.3478C160.18 36.3478 161.168 35.9826 162.034 35.2521C162.034 35.9826 161.91 36.3478 161.663 36.7131C161.169 37.4436 160.303 37.9306 158.944 37.9306C157.832 37.9306 157.09 37.5653 156.472 36.7131L156.348 36.4696L154.123 37.9306L154.371 38.1737C155.607 39.513 156.842 40 158.944 40C160.798 40 162.281 39.6347 163.27 38.7825C164.382 37.9306 164.876 36.4696 164.876 34.2784V28.435C164.876 27.461 164.876 26.974 165 26.2435V26H162.157L162.034 27.0958ZM161.539 32.9391C161.045 33.6696 160.18 34.1566 159.314 34.1566C158.697 34.1566 158.078 33.9131 157.584 33.4261C157.09 32.9391 156.842 32.2086 156.842 31.2349C156.842 29.2869 157.832 28.0698 159.438 28.0698C160.056 28.0698 160.551 28.3133 160.921 28.6785C161.539 29.1652 161.91 30.0174 161.91 30.9914C162.034 31.8437 161.787 32.4521 161.539 32.9391Z" fill="#231F20"/>
<path d="M170.438 26C167.101 26 165 28.1999 165 31.5C165 34.9223 167.225 37 170.562 37C173.775 37 176 34.8001 176 31.3778C176 28.1999 173.775 26 170.438 26ZM170.438 34.8001C168.708 34.8001 167.719 33.5777 167.719 31.6222C167.719 29.5442 168.708 28.3222 170.438 28.3222C172.169 28.3222 173.157 29.5442 173.157 31.6222C173.157 33.5777 172.169 34.8001 170.438 34.8001Z" fill="#231F20"/>
<path d="M182.438 26C179.101 26 177 28.1999 177 31.5C177 34.9223 179.225 37 182.562 37C185.775 37 188 34.8001 188 31.3778C187.876 28.0777 185.775 26 182.438 26ZM182.438 34.6778C180.708 34.6778 179.719 33.4555 179.719 31.5C179.719 29.4223 180.708 28.1999 182.438 28.1999C184.169 28.1999 185.157 29.4223 185.157 31.5C185.157 33.5777 184.045 34.6778 182.438 34.6778Z" fill="#231F20"/>
<path d="M198.879 34V24.625C198.879 23.7499 198.879 23.1248 199 22.25V22H195.978V22.25C196.099 22.9998 196.099 23.6248 196.099 24.625V26.3748C196.099 26.6248 196.099 26.7499 196.099 26.9999C195.978 26.8749 195.857 26.7499 195.615 26.6248C194.89 25.9998 193.923 25.7498 192.835 25.7498C189.813 25.7498 188 28 188 31.375C188 33.3749 188.725 35.1248 189.934 35.9999C190.78 36.625 191.747 37 192.956 37C194.406 37 195.373 36.625 196.22 35.7499V36.75H199V36.4999C198.879 35.6249 198.879 35.0001 198.879 34ZM195.494 33.3749C195.011 34 194.165 34.5001 193.44 34.5001C191.868 34.5001 190.901 33.2499 190.901 31.25C190.901 29.2498 191.868 28 193.44 28C194.165 28 195.011 28.375 195.494 28.8748C195.978 29.3748 196.22 30.2499 196.22 31.125C196.099 31.9998 195.857 32.8749 195.494 33.3749Z" fill="#231F20"/>
<path d="M211.976 26.1279C211.976 26.6393 211.855 27.5347 211.613 28.3023L210.645 31.8838C210.645 31.8838 210.645 32.1396 210.524 32.2675C210.524 32.1396 210.403 32.0117 210.403 32.0117L209.072 27.9185C208.951 27.4068 208.71 26.5114 208.589 26.2558V26H206.29V26.2558C206.29 26.6393 206.048 27.4068 205.927 27.9185L204.718 31.8838C204.718 32.0117 204.597 32.1396 204.597 32.3955C204.597 32.2675 204.476 32.0117 204.476 32.0117L203.508 28.4302C203.387 27.7906 203.145 26.8951 203.145 26.2558V26H200L200.121 26.3838C200.363 27.023 200.605 27.7906 200.847 28.686L202.782 35.0815C203.024 35.977 203.145 36.2328 203.266 36.7442V37H205.685V36.7442C205.806 36.3604 205.927 35.7211 206.169 35.0815L207.5 30.8604C207.5 30.7325 207.5 30.6045 207.621 30.4766C207.621 30.7325 207.742 30.7325 207.742 30.8604L209.072 35.0815C209.193 35.7211 209.435 36.3604 209.556 36.7442V37H211.976V36.7442C212.097 36.2328 212.097 35.977 212.339 35.0815L214.395 28.0464C214.637 27.151 214.758 26.8951 214.879 26.3838L215 26H211.855L211.976 26.1279Z" fill="#231F20"/>
<path d="M219 26.235V26H216V26.235C216.12 26.941 216.12 27.4116 216.12 28.3529V33.6471C216.12 34.4707 216.12 35.059 216 35.7647V36H219V35.7647C218.88 35.059 218.88 34.4707 218.88 33.6471V28.4706C218.88 27.4116 219 26.941 219 26.235Z" fill="#231F20"/>
<path d="M229.879 33.6745V29.721C229.879 28.5584 229.638 27.8606 229.277 27.2792C228.554 26.3489 227.59 26 226.145 26C224.699 26 223.855 26.3489 222.892 27.2792V26.1163H220V26.3489C220.121 27.0466 220.121 27.5118 220.121 28.4421V33.6745C220.121 34.6048 220.121 35.0697 220 35.7674V36H223.012V35.7674C222.892 35.0697 222.892 34.4885 222.892 33.6745V30.4187C223.614 28.9069 224.578 28.0932 225.662 28.0932C226.265 28.0932 226.627 28.3258 226.868 28.6747C226.988 28.9069 227.108 29.3721 227.108 29.9535V33.6745C227.108 34.4885 227.108 35.0697 226.988 35.7674V36H230V35.7674C230 35.186 229.879 34.6048 229.879 33.6745Z" fill="#231F20"/>
<path d="M240.881 32.044C240.881 31.6813 240.881 31.5604 240.881 31.5604C240.881 30.3515 240.762 29.7474 240.405 28.9011C239.69 27.0877 238.024 26 236 26C232.905 26 231 28.1758 231 31.5604C231 34.9451 233.024 37 236.119 37C237.667 37 238.857 36.5164 239.81 35.5496C240.167 35.1869 240.405 34.9451 240.643 34.4616L238.381 33.2526C238.262 33.4944 238.143 33.6153 238.024 33.7362C237.548 34.2198 236.952 34.4616 236.119 34.4616C235.286 34.4616 234.691 34.0989 234.214 33.6153C233.857 33.2526 233.738 32.7694 233.619 32.044H241H240.881ZM233.619 30.1097C233.976 28.9011 234.691 28.2966 235.881 28.2966C236.595 28.2966 237.072 28.5384 237.548 28.9011C237.905 29.2638 238.024 29.6265 238.143 30.1097H233.619Z" fill="#231F20"/>
<path d="M129.5 34.5441C129.154 34.5441 128.923 34.6579 128.692 34.7719H128.577V22.9124C128.577 22.3421 128.577 22.2281 128 22.2281V22.114H129.039C129.5 22.114 129.731 22.114 130.077 22H130.193V26.5613C130.885 25.9911 132.039 25.3071 133.308 25.3071C135.385 25.3071 137 26.7894 137 29.6403C137 33.1755 134.462 35 132.154 35C131 34.886 130.077 34.5441 129.5 34.5441ZM135.269 30.0965C135.269 27.4737 134.115 25.9911 132.385 25.9911C131.462 25.9911 130.769 26.3332 130.308 26.7894V33.9739C130.769 34.316 131.462 34.7719 132.385 34.7719C133.885 34.6579 135.269 32.9474 135.269 30.0965Z" fill="#231F20"/>
<path d="M138.633 38.9734C138.633 38.4698 139.013 37.9665 139.772 37.9665C140.911 37.9665 141.165 38.9734 140.658 39.6029C141.291 39.477 142.304 38.5957 143.063 36.3298L143.443 35.3226H142.304L138.886 26.1328C138.633 25.5036 138.38 25.2518 138 25.2518V25H141.291V25.1259C140.405 25.1259 140.532 25.6292 140.911 26.6364L143.57 34.3157L146.228 26.8882C146.734 25.6292 146.354 25.1259 145.722 25.1259V25H148V25.1259C147.494 25.1259 147.114 25.5036 146.608 27.0141L143.19 36.5816C142.43 38.8475 141.165 39.9806 139.899 39.9806C139.14 40.1065 138.633 39.6029 138.633 38.9734Z" fill="#231F20"/>
<path d="M128.333 11.7025V4.60309H127V4.36645C128.6 4.24812 129 3.89317 130.067 2H130.2V4.24812H132.734V4.48479H130.2V11.5841C130.2 12.7674 130.867 13.2407 131.667 13.2407C132.2 13.2407 132.467 13.2406 133 13.004V13.1223C132.467 13.4773 131.667 13.9506 130.733 13.9506C129.267 14.1872 128.333 13.5956 128.333 11.7025Z" fill="#231F20"/>
<path d="M134 13.878C134.588 13.878 134.588 13.7561 134.588 13.1463V5.09754C134.588 4.48779 134.588 4.36586 134 4.36586V4.2439H135.059C135.529 4.2439 135.765 4.2439 136.118 4.12193H136.235V5.82926C136.588 5.09754 137.882 4 138.941 4C139.647 4 140 4.48779 140 4.97561C140 5.58537 139.529 6.07316 138.941 6.07316C138.353 6.07316 137.882 5.58537 137.882 5.09754C137.882 4.97561 137.882 4.73169 138 4.60975C137.294 4.85365 136.588 5.58537 136.235 6.19512V13.1463C136.235 13.7561 136.235 13.878 136.941 13.878V14H134V13.878Z" fill="#231F20"/>
<path d="M141 11.6471C141 10.353 141.606 9.76472 143.667 9.29412L146.212 8.70588V6.94118C146.212 5.17647 145.485 4.35295 144.03 4.35295C142.697 4.35295 142.091 4.82352 141.97 5.17647C142.818 5.2941 143.182 5.64705 143.182 6.11765C143.182 6.70589 142.697 6.94118 142.212 6.94118C141.848 6.94118 141.242 6.70589 141.242 5.99999C141.242 5.05881 142.333 4 144.636 4C146.939 4 147.788 5.2941 147.788 7.05884V12.2353C147.788 13.0588 148.03 13.1765 148.636 13.1765H149V13.2941C148.758 13.4118 148.151 14 147.303 14C146.576 14 146.091 13.6471 146.091 12.5882C145.364 13.1765 144.515 14 143.182 14C142.455 14 141 13.6471 141 11.6471ZM146.333 12.353V9.05883C146.091 9.05883 145.606 9.05883 144.879 9.17646C142.818 9.52941 142.576 10.353 142.576 11.2941C142.576 12.7059 143.303 13.1765 144.273 13.1765C145.242 13.2941 145.97 12.7059 146.333 12.353Z" fill="#231F20"/>
<path d="M149.886 4.98766C149.633 4.37038 149.38 4.12344 149 4.12344V4H152.291V4.12344C151.405 4.12344 151.532 4.61728 151.911 5.60494L154.57 13.1358L157.228 5.85185C157.734 4.61728 157.481 4.12344 156.722 4.12344V4H159V4.12344C158.494 4.12344 158.114 4.49381 157.608 5.97532L154.696 14H153.304L149.886 4.98766Z" fill="#231F20"/>
<path d="M160 9.17646C160 5.64705 162.215 4 164.185 4C165.908 4 167.754 4.82352 167.754 7.41175V7.88236H161.6V8.23531C161.6 10.9412 162.831 12.9412 165.046 12.9412C166.4 12.9412 167.385 12.2353 168 11.8824V12.1177C167.262 12.7059 165.415 14 164.061 14C161.6 14 160 12.1177 160 9.17646ZM166.031 7.7647V7.05884C166.031 5.17647 165.169 4.23529 163.815 4.23529C162.585 4.23529 161.477 5.41176 161.477 7.52941V7.64707H166.031V7.7647Z" fill="#231F20"/>
<path d="M169.12 13.8739C169.72 13.8739 169.72 13.7478 169.72 13.1171V1.00901C169.72 0.378385 169.72 0.252246 169.12 0.252246V0.126105H170.2C170.68 0.126105 170.92 0.126106 171.28 0H171.4V13.1171C171.4 13.7478 171.4 13.8739 172 13.8739V14H169V13.8739H169.12Z" fill="#231F20"/>
<path d="M179 10.8604C179 7.60463 182.291 4 185.456 4C186.468 4 187.228 4.34884 187.734 4.34884C187.987 4.34884 188.367 4.23255 188.873 4H189L187.101 12.3721C186.975 13.0698 187.228 13.1861 187.987 12.9535V13.0698C187.354 13.4186 186.468 13.8837 185.962 13.8837C185.456 13.8837 185.076 13.6512 185.329 12.8372L185.456 12.2558C184.696 12.8372 183.177 14 181.785 14C180.266 13.8837 179 12.8372 179 10.8604ZM185.329 11.907L186.975 5.0465C186.595 4.58139 185.962 4.23255 185.203 4.23255C182.544 4.23255 180.645 7.95347 180.645 10.5116C180.645 12.1395 181.532 13.0698 182.671 13.0698C183.683 13.0698 184.823 12.3721 185.329 11.907Z" fill="#231F20"/>
<path d="M188 16.4181C188 15.0656 189.625 14.082 191.125 13.7131C190.5 13.3443 190.125 12.8525 190.125 12.3607C190.125 11.6229 190.75 10.8852 191.875 10.1475C190.875 9.65572 190.25 8.67214 190.5 7.31967C190.875 5.22951 192.875 4 194.875 4C195.375 4 195.875 4.12293 196.375 4.2459H200V4.49179H197.125C198 4.98358 198.375 5.96719 198.125 7.07377C197.75 9.16393 195.75 10.3934 193.75 10.3934C193.25 10.3934 192.625 10.2705 192.25 10.1475C191.625 10.5164 191.375 10.8852 191.375 11.3771C191.375 11.7459 191.5 12.1148 192.375 12.3607L195.25 13.2213C196.875 13.7131 197.5 14.3279 197.5 15.5574C197.5 17.5246 195.125 19 192.625 19C190 19 188 17.8935 188 16.4181ZM196.25 16.2951C196.25 15.5574 195.75 15.0656 194.5 14.8197L192.125 14.082C191.875 13.959 191.625 13.959 191.375 13.8361C190.25 14.2049 189 15.0656 189 16.1722C189 17.4017 190.25 18.7541 192.875 18.6312C194.75 18.7541 196.25 17.7705 196.25 16.2951ZM196.25 7.44263C196.625 5.4754 196.125 4.36883 194.75 4.36883C193.5 4.36883 192.625 5.22951 192.25 7.31967C191.875 9.16393 192.25 10.2705 193.625 10.2705C195 10.3934 195.875 9.53279 196.25 7.44263Z" fill="#231F20"/>
<path d="M200 10.5882C200 7.64707 202.182 4 205.576 4C206.788 4 208 4.58824 208 5.88233C208 7.52941 206.182 7.99999 203.394 7.99999H201.939C201.818 8.70588 201.697 9.29412 201.697 9.88235C201.697 11.6471 202.546 12.8235 204 12.8235C205.212 12.8235 206.182 12.1177 207.03 11.2941V11.5294C205.818 12.7059 204.485 14 202.788 14C201.091 14 200 12.5882 200 10.5882ZM203.515 7.7647C205.576 7.7647 206.303 6.82352 206.424 5.76471C206.545 4.82352 205.939 4.23529 205.212 4.23529C203.758 4.23529 202.666 5.76471 202.182 7.7647H203.515Z" fill="#231F20"/>
<path d="M214.907 12.9412L216.26 6.82352C216.63 5.2941 216.137 4.70586 215.276 4.70586C214.291 4.70586 213.061 5.64705 212.323 6.23528L210.723 13.7647H209L210.723 5.52942C210.846 5.05881 210.723 4.82352 210.477 4.82352C210.354 4.82352 210.231 4.82352 209.985 4.94118V4.82352C210.477 4.47058 211.338 4 211.953 4C212.446 4 212.692 4.35295 212.569 5.05881L212.446 5.88233C214.168 4.35295 215.399 4 216.137 4C217.491 4 218.352 4.94118 217.86 6.82352L216.63 12.4706C216.507 13.1765 216.752 13.2941 217.491 13.0588V13.1765C216.999 13.5294 216.137 14 215.522 14C215.03 14 214.661 13.6471 214.907 12.9412Z" fill="#231F20"/>
<path d="M220.032 10.2353C220.281 7.05884 222.895 4 225.634 4C227.004 4 228 4.82352 228 5.64705C228 6.23528 227.502 6.82352 226.755 6.82352C226.132 6.82352 225.759 6.47057 225.759 5.88233C225.759 5.2941 226.381 4.82352 227.004 4.70586C226.755 4.47058 226.257 4.23529 225.634 4.23529C223.144 4.23529 221.899 7.41175 221.775 9.64706C221.65 11.6471 222.397 12.8235 224.14 12.8235C225.385 12.8235 226.257 12.1177 227.253 11.2941V11.5294C226.008 12.7059 224.638 14 223.02 14C221.028 14 219.783 12.4706 220.032 10.2353Z" fill="#231F20"/>
<path d="M226 17.0539C226 16.4763 226.518 16.0142 227.165 16.0142C228.071 16.0142 228.588 16.8229 228.071 17.6315C229.106 17.285 230.788 16.1297 232.6 13.8193C232.47 13.9349 232.212 13.9349 231.953 13.9349C231.435 13.9349 231.176 13.8193 231.047 13.3572L229.623 5.27072C229.623 4.92415 229.235 4.92415 228.718 5.15521V5.03968C229.235 4.69311 230.141 4.1155 230.659 4.1155C231.047 4.1155 231.176 4.34654 231.306 4.69311L232.859 13.3572C233.118 13.1262 233.247 12.7796 233.506 12.4331C234.929 10.3537 236.612 7.46564 236.612 5.27072C236.482 5.61729 236.094 5.96386 235.576 5.96386C234.929 5.96386 234.541 5.50176 234.541 5.03968C234.541 4.57761 235.059 4 235.706 4C236.353 4 237 4.46207 237 5.50175C237 7.46564 235.447 10.3537 233.894 12.5486C231.306 16.2453 228.718 17.9781 227.424 17.9781C226.518 18.0936 226 17.7471 226 17.0539Z" fill="#231F20"/>
</svg>
